Tue Mar  8 10:46:13 CET 2022

~~~~~~~~~~~ modele cinq ~~~~~~~~~~
HRest -A -C Modeles/htk.conf -l cinq -L Labels/ -M Modeles/appris/ -e 0.005 -i 90 -T 1 -m 3 Modeles/init//cinq -S Listes/wav.all.lst 
Reestimating HMM Modeles/init//cinq . . . 
 States   :   2  3  4 (width)
 Mixes  s1:   1  1  1 ( 39  )
 Num Using:   0  0  0
 Parm Kind:  MFCC_E_D_A
 Number of owners = 1
 SegLab   :  cinq
 MaxIter  :  90
 Epsilon  :  0.005000
 Updating :  Transitions Means Variances 

 - system is PLAIN
10 Examples loaded, Max length = 76, Min length = 50
Ave LogProb at iter 1 = -3630.12939 using 10 examples
Ave LogProb at iter 2 = -3514.46411 using 10 examples  change =  115.66528
Ave LogProb at iter 3 = -3511.28662 using 10 examples  change =    3.17749
Ave LogProb at iter 4 = -3510.27100 using 10 examples  change =    1.01562
Ave LogProb at iter 5 = -3501.21729 using 10 examples  change =    9.05371
Ave LogProb at iter 6 = -3491.25122 using 10 examples  change =    9.96606
Ave LogProb at iter 7 = -3481.07104 using 10 examples  change =   10.18018
Ave LogProb at iter 8 = -3474.97192 using 10 examples  change =    6.09912
Ave LogProb at iter 9 = -3473.34229 using 10 examples  change =    1.62964
Ave LogProb at iter 10 = -3471.36987 using 10 examples  change =    1.97241
Ave LogProb at iter 11 = -3470.49878 using 10 examples  change =    0.87109
Ave LogProb at iter 12 = -3467.23779 using 10 examples  change =    3.26099
Ave LogProb at iter 13 = -3467.15186 using 10 examples  change =    0.08594
Ave LogProb at iter 14 = -3466.95068 using 10 examples  change =    0.20117
Ave LogProb at iter 15 = -3466.78394 using 10 examples  change =    0.16675
Ave LogProb at iter 16 = -3466.78198 using 10 examples  change =    0.00195
Estimation converged at iteration 16
~~~ modele cinq deja calcule ! ~~~
~~~~~~~~~~~ modele deux ~~~~~~~~~~
HRest -A -C Modeles/htk.conf -l deux -L Labels/ -M Modeles/appris/ -e 0.005 -i 90 -T 1 -m 3 Modeles/init//deux -S Listes/wav.all.lst 
Reestimating HMM Modeles/init//deux . . . 
 States   :   2  3 (width)
 Mixes  s1:   1  1 ( 39  )
 Num Using:   0  0
 Parm Kind:  MFCC_E_D_A
 Number of owners = 1
 SegLab   :  deux
 MaxIter  :  90
 Epsilon  :  0.005000
 Updating :  Transitions Means Variances 

 - system is PLAIN
10 Examples loaded, Max length = 42, Min length = 24
Ave LogProb at iter 1 = -2011.26343 using 10 examples
Ave LogProb at iter 2 = -1936.88123 using 10 examples  change =   74.38220
Ave LogProb at iter 3 = -1936.75806 using 10 examples  change =    0.12317
Ave LogProb at iter 4 = -1934.81470 using 10 examples  change =    1.94336
Ave LogProb at iter 5 = -1926.10132 using 10 examples  change =    8.71338
Ave LogProb at iter 6 = -1921.63025 using 10 examples  change =    4.47107
Ave LogProb at iter 7 = -1919.42896 using 10 examples  change =    2.20129
Ave LogProb at iter 8 = -1918.37073 using 10 examples  change =    1.05823
Ave LogProb at iter 9 = -1918.11792 using 10 examples  change =    0.25281
Ave LogProb at iter 10 = -1917.82068 using 10 examples  change =    0.29724
Ave LogProb at iter 11 = -1917.49060 using 10 examples  change =    0.33008
Ave LogProb at iter 12 = -1917.04260 using 10 examples  change =    0.44800
Ave LogProb at iter 13 = -1916.87402 using 10 examples  change =    0.16858
Ave LogProb at iter 14 = -1916.85974 using 10 examples  change =    0.01428
Ave LogProb at iter 15 = -1916.85583 using 10 examples  change =    0.00391
Estimation converged at iteration 15
~~~~~~~~~~~ modele huit ~~~~~~~~~~
HRest -A -C Modeles/htk.conf -l huit -L Labels/ -M Modeles/appris/ -e 0.005 -i 90 -T 1 -m 3 Modeles/init//huit -S Listes/wav.all.lst 
Reestimating HMM Modeles/init//huit . . . 
 States   :   2  3  4 (width)
 Mixes  s1:   1  1  1 ( 39  )
 Num Using:   0  0  0
 Parm Kind:  MFCC_E_D_A
 Number of owners = 1
 SegLab   :  huit
 MaxIter  :  90
 Epsilon  :  0.005000
 Updating :  Transitions Means Variances 

 - system is PLAIN
10 Examples loaded, Max length = 99, Min length = 43
Ave LogProb at iter 1 = -3517.13916 using 10 examples
Ave LogProb at iter 2 = -3400.88672 using 10 examples  change =  116.25244
Ave LogProb at iter 3 = -3400.86792 using 10 examples  change =    0.01880
Ave LogProb at iter 4 = -3400.86377 using 10 examples  change =    0.00415
Estimation converged at iteration 4
~~~~~~~~~~~ modele moins ~~~~~~~~~~
HRest -A -C Modeles/htk.conf -l moins -L Labels/ -M Modeles/appris/ -e 0.005 -i 90 -T 1 -m 3 Modeles/init//moins -S Listes/wav.all.lst 
Reestimating HMM Modeles/init//moins . . . 
 States   :   2  3  4  5 (width)
 Mixes  s1:   1  1  1  1 ( 39  )
 Num Using:   0  0  0  0
 Parm Kind:  MFCC_E_D_A
 Number of owners = 1
 SegLab   :  moins
 MaxIter  :  90
 Epsilon  :  0.005000
 Updating :  Transitions Means Variances 

 - system is PLAIN
10 Examples loaded, Max length = 51, Min length = 27
Ave LogProb at iter 1 = -2276.88843 using 10 examples
Ave LogProb at iter 2 = -2158.34033 using 10 examples  change =  118.54810
Ave LogProb at iter 3 = -2157.01660 using 10 examples  change =    1.32373
Ave LogProb at iter 4 = -2156.21704 using 10 examples  change =    0.79956
Ave LogProb at iter 5 = -2155.79248 using 10 examples  change =    0.42456
Ave LogProb at iter 6 = -2155.48804 using 10 examples  change =    0.30444
Ave LogProb at iter 7 = -2155.13013 using 10 examples  change =    0.35791
Ave LogProb at iter 8 = -2154.80664 using 10 examples  change =    0.32349
Ave LogProb at iter 9 = -2154.12451 using 10 examples  change =    0.68213
Ave LogProb at iter 10 = -2153.85010 using 10 examples  change =    0.27441
Ave LogProb at iter 11 = -2153.36646 using 10 examples  change =    0.48364
Ave LogProb at iter 12 = -2153.11938 using 10 examples  change =    0.24707
Ave LogProb at iter 13 = -2153.03857 using 10 examples  change =    0.08081
Ave LogProb at iter 14 = -2152.97021 using 10 examples  change =    0.06836
Ave LogProb at iter 15 = -2152.88208 using 10 examples  change =    0.08813
Ave LogProb at iter 16 = -2152.75073 using 10 examples  change =    0.13135
Ave LogProb at iter 17 = -2152.60742 using 10 examples  change =    0.14331
Ave LogProb at iter 18 = -2152.51099 using 10 examples  change =    0.09644
Ave LogProb at iter 19 = -2152.46436 using 10 examples  change =    0.04663
Ave LogProb at iter 20 = -2152.44653 using 10 examples  change =    0.01782
Ave LogProb at iter 21 = -2152.44019 using 10 examples  change =    0.00635
Ave LogProb at iter 22 = -2152.43799 using 10 examples  change =    0.00220
Estimation converged at iteration 22
~~~~~~~~~~~ modele neuf ~~~~~~~~~~
HRest -A -C Modeles/htk.conf -l neuf -L Labels/ -M Modeles/appris/ -e 0.005 -i 90 -T 1 -m 3 Modeles/init//neuf -S Listes/wav.all.lst 
Reestimating HMM Modeles/init//neuf . . . 
 States   :   2  3  4 (width)
 Mixes  s1:   1  1  1 ( 39  )
 Num Using:   0  0  0
 Parm Kind:  MFCC_E_D_A
 Number of owners = 1
 SegLab   :  neuf
 MaxIter  :  90
 Epsilon  :  0.005000
 Updating :  Transitions Means Variances 

 - system is PLAIN
10 Examples loaded, Max length = 200, Min length = 36
Ave LogProb at iter 1 = -3683.86865 using 10 examples
Ave LogProb at iter 2 = -3524.49365 using 10 examples  change =  159.37500
Ave LogProb at iter 3 = -3523.94287 using 10 examples  change =    0.55078
Ave LogProb at iter 4 = -3522.56567 using 10 examples  change =    1.37720
Ave LogProb at iter 5 = -3522.50586 using 10 examples  change =    0.05981
Ave LogProb at iter 6 = -3522.49072 using 10 examples  change =    0.01514
Ave LogProb at iter 7 = -3522.48584 using 10 examples  change =    0.00488
Estimation converged at iteration 7
~~~~~~~~~~~ modele plus ~~~~~~~~~~
HRest -A -C Modeles/htk.conf -l plus -L Labels/ -M Modeles/appris/ -e 0.005 -i 90 -T 1 -m 3 Modeles/init//plus -S Listes/wav.all.lst 
Reestimating HMM Modeles/init//plus . . . 
 States   :   2  3  4  5 (width)
 Mixes  s1:   1  1  1  1 ( 39  )
 Num Using:   0  0  0  0
 Parm Kind:  MFCC_E_D_A
 Number of owners = 1
 SegLab   :  plus
 MaxIter  :  90
 Epsilon  :  0.005000
 Updating :  Transitions Means Variances 

 - system is PLAIN
10 Examples loaded, Max length = 75, Min length = 17
Ave LogProb at iter 1 = -3111.98291 using 10 examples
Ave LogProb at iter 2 = -2973.74683 using 10 examples  change =  138.23608
Ave LogProb at iter 3 = -2973.33740 using 10 examples  change =    0.40942
Ave LogProb at iter 4 = -2972.94824 using 10 examples  change =    0.38916
Ave LogProb at iter 5 = -2972.55859 using 10 examples  change =    0.38965
Ave LogProb at iter 6 = -2971.71826 using 10 examples  change =    0.84033
Ave LogProb at iter 7 = -2969.12109 using 10 examples  change =    2.59717
Ave LogProb at iter 8 = -2962.34668 using 10 examples  change =    6.77441
Ave LogProb at iter 9 = -2960.60693 using 10 examples  change =    1.73975
Ave LogProb at iter 10 = -2960.03174 using 10 examples  change =    0.57520
Ave LogProb at iter 11 = -2959.98193 using 10 examples  change =    0.04980
Ave LogProb at iter 12 = -2959.89331 using 10 examples  change =    0.08862
Ave LogProb at iter 13 = -2959.84180 using 10 examples  change =    0.05151
Ave LogProb at iter 14 = -2959.84033 using 10 examples  change =    0.00146
Estimation converged at iteration 14
~~~~~~~~~~~ modele quatre ~~~~~~~~~~
HRest -A -C Modeles/htk.conf -l quatre -L Labels/ -M Modeles/appris/ -e 0.005 -i 90 -T 1 -m 3 Modeles/init//quatre -S Listes/wav.all.lst 
Reestimating HMM Modeles/init//quatre . . . 
 States   :   2  3  4  5  6 (width)
 Mixes  s1:   1  1  1  1  1 ( 39  )
 Num Using:   0  0  0  0  0
 Parm Kind:  MFCC_E_D_A
 Number of owners = 1
 SegLab   :  quatre
 MaxIter  :  90
 Epsilon  :  0.005000
 Updating :  Transitions Means Variances 

 - system is PLAIN
10 Examples loaded, Max length = 61, Min length = 18
Ave LogProb at iter 1 = -2713.99658 using 10 examples
Ave LogProb at iter 2 = -2628.94287 using 10 examples  change =   85.05371
Ave LogProb at iter 3 = -2627.67529 using 10 examples  change =    1.26758
Ave LogProb at iter 4 = -2627.08789 using 10 examples  change =    0.58740
Ave LogProb at iter 5 = -2626.98022 using 10 examples  change =    0.10767
Ave LogProb at iter 6 = -2626.84229 using 10 examples  change =    0.13794
Ave LogProb at iter 7 = -2626.61328 using 10 examples  change =    0.22900
Ave LogProb at iter 8 = -2626.51343 using 10 examples  change =    0.09985
Ave LogProb at iter 9 = -2626.47412 using 10 examples  change =    0.03931
Ave LogProb at iter 10 = -2626.43408 using 10 examples  change =    0.04004
Ave LogProb at iter 11 = -2626.41553 using 10 examples  change =    0.01855
Ave LogProb at iter 12 = -2626.40674 using 10 examples  change =    0.00879
Ave LogProb at iter 13 = -2626.40015 using 10 examples  change =    0.00659
Ave LogProb at iter 14 = -2626.39600 using 10 examples  change =    0.00415
Estimation converged at iteration 14
~~~~~~~~~~~ modele sept ~~~~~~~~~~
HRest -A -C Modeles/htk.conf -l sept -L Labels/ -M Modeles/appris/ -e 0.005 -i 90 -T 1 -m 3 Modeles/init//sept -S Listes/wav.all.lst 
Reestimating HMM Modeles/init//sept . . . 
 States   :   2  3  4 (width)
 Mixes  s1:   1  1  1 ( 39  )
 Num Using:   0  0  0
 Parm Kind:  MFCC_E_D_A
 Number of owners = 1
 SegLab   :  sept
 MaxIter  :  90
 Epsilon  :  0.005000
 Updating :  Transitions Means Variances 

 - system is PLAIN
10 Examples loaded, Max length = 79, Min length = 38
Ave LogProb at iter 1 = -3625.77271 using 10 examples
Ave LogProb at iter 2 = -3506.83667 using 10 examples  change =  118.93604
Ave LogProb at iter 3 = -3505.92773 using 10 examples  change =    0.90894
Ave LogProb at iter 4 = -3505.65283 using 10 examples  change =    0.27490
Ave LogProb at iter 5 = -3505.45459 using 10 examples  change =    0.19824
Ave LogProb at iter 6 = -3505.24609 using 10 examples  change =    0.20850
Ave LogProb at iter 7 = -3505.04761 using 10 examples  change =    0.19849
Ave LogProb at iter 8 = -3504.92261 using 10 examples  change =    0.12500
Ave LogProb at iter 9 = -3504.82275 using 10 examples  change =    0.09985
Ave LogProb at iter 10 = -3504.75708 using 10 examples  change =    0.06567
Ave LogProb at iter 11 = -3504.72803 using 10 examples  change =    0.02905
Ave LogProb at iter 12 = -3504.71680 using 10 examples  change =    0.01123
Ave LogProb at iter 13 = -3504.71240 using 10 examples  change =    0.00439
Estimation converged at iteration 13
~~~~~~~~~~~ modele six ~~~~~~~~~~
HRest -A -C Modeles/htk.conf -l six -L Labels/ -M Modeles/appris/ -e 0.005 -i 90 -T 1 -m 3 Modeles/init//six -S Listes/wav.all.lst 
Reestimating HMM Modeles/init//six . . . 
 States   :   2  3  4 (width)
 Mixes  s1:   1  1  1 ( 39  )
 Num Using:   0  0  0
 Parm Kind:  MFCC_E_D_A
 Number of owners = 1
 SegLab   :  six
 MaxIter  :  90
 Epsilon  :  0.005000
 Updating :  Transitions Means Variances 

 - system is PLAIN
10 Examples loaded, Max length = 100, Min length = 44
Ave LogProb at iter 1 = -3864.39697 using 10 examples
Ave LogProb at iter 2 = -3682.53394 using 10 examples  change =  181.86304
Ave LogProb at iter 3 = -3681.14380 using 10 examples  change =    1.39014
Ave LogProb at iter 4 = -3678.20581 using 10 examples  change =    2.93799
Ave LogProb at iter 5 = -3677.32373 using 10 examples  change =    0.88208
Ave LogProb at iter 6 = -3675.94458 using 10 examples  change =    1.37915
Ave LogProb at iter 7 = -3675.72778 using 10 examples  change =    0.21680
Ave LogProb at iter 8 = -3675.69141 using 10 examples  change =    0.03638
Ave LogProb at iter 9 = -3675.65234 using 10 examples  change =    0.03906
Ave LogProb at iter 10 = -3675.60303 using 10 examples  change =    0.04932
Ave LogProb at iter 11 = -3675.57812 using 10 examples  change =    0.02490
Ave LogProb at iter 12 = -3675.57422 using 10 examples  change =    0.00391
Estimation converged at iteration 12
~~~~~~~~~~~ modele trois ~~~~~~~~~~
HRest -A -C Modeles/htk.conf -l trois -L Labels/ -M Modeles/appris/ -e 0.005 -i 90 -T 1 -m 3 Modeles/init//trois -S Listes/wav.all.lst 
Reestimating HMM Modeles/init//trois . . . 
 States   :   2  3  4  5 (width)
 Mixes  s1:   1  1  1  1 ( 39  )
 Num Using:   0  0  0  0
 Parm Kind:  MFCC_E_D_A
 Number of owners = 1
 SegLab   :  trois
 MaxIter  :  90
 Epsilon  :  0.005000
 Updating :  Transitions Means Variances 

 - system is PLAIN
10 Examples loaded, Max length = 58, Min length = 24
Ave LogProb at iter 1 = -2459.44092 using 10 examples
Ave LogProb at iter 2 = -2386.17700 using 10 examples  change =   73.26392
Ave LogProb at iter 3 = -2386.00684 using 10 examples  change =    0.17017
Ave LogProb at iter 4 = -2384.93579 using 10 examples  change =    1.07104
Ave LogProb at iter 5 = -2383.76709 using 10 examples  change =    1.16870
Ave LogProb at iter 6 = -2383.21436 using 10 examples  change =    0.55273
Ave LogProb at iter 7 = -2377.80811 using 10 examples  change =    5.40625
Ave LogProb at iter 8 = -2376.48364 using 10 examples  change =    1.32446
Ave LogProb at iter 9 = -2376.37549 using 10 examples  change =    0.10815
Ave LogProb at iter 10 = -2376.00171 using 10 examples  change =    0.37378
Ave LogProb at iter 11 = -2375.96924 using 10 examples  change =    0.03247
Ave LogProb at iter 12 = -2375.96680 using 10 examples  change =    0.00244
Estimation converged at iteration 12
~~~~~~~~~~~ modele un ~~~~~~~~~~
HRest -A -C Modeles/htk.conf -l un -L Labels/ -M Modeles/appris/ -e 0.005 -i 90 -T 1 -m 3 Modeles/init//un -S Listes/wav.all.lst 
  ERROR [+5010]  InitSource: Cannot open source file Modeles/init//un
  ERROR [+7010]  LoadHMMSet: Can't find file
  ERROR [+2128]  Initialise1: LoadHMMSet failed
 FATAL ERROR - Terminating program HRest
~~~~~~~~~~~ modele zero ~~~~~~~~~~
HRest -A -C Modeles/htk.conf -l zero -L Labels/ -M Modeles/appris/ -e 0.005 -i 90 -T 1 -m 3 Modeles/init//zero -S Listes/wav.all.lst 
Reestimating HMM Modeles/init//zero . . . 
 States   :   2  3  4  5 (width)
 Mixes  s1:   1  1  1  1 ( 39  )
 Num Using:   0  0  0  0
 Parm Kind:  MFCC_E_D_A
 Number of owners = 1
 SegLab   :  zero
 MaxIter  :  90
 Epsilon  :  0.005000
 Updating :  Transitions Means Variances 

 - system is PLAIN
10 Examples loaded, Max length = 70, Min length = 42
Ave LogProb at iter 1 = -3412.64893 using 10 examples
Ave LogProb at iter 2 = -3265.42603 using 10 examples  change =  147.22290
Ave LogProb at iter 3 = -3265.40747 using 10 examples  change =    0.01855
Ave LogProb at iter 4 = -3265.40088 using 10 examples  change =    0.00659
Ave LogProb at iter 5 = -3265.39526 using 10 examples  change =    0.00562
Ave LogProb at iter 6 = -3265.38721 using 10 examples  change =    0.00806
Ave LogProb at iter 7 = -3265.37720 using 10 examples  change =    0.01001
Ave LogProb at iter 8 = -3265.37061 using 10 examples  change =    0.00659
Ave LogProb at iter 9 = -3265.36865 using 10 examples  change =    0.00195
Estimation converged at iteration 9
Tue Mar  8 10:46:15 CET 2022
