Created from template: |append [ot_log-ERR-%y-%m-%d_%H_%M_%s.log] 
Number of records: unlimited
Lifetime: unlimited
Log format:
date time severity {session id} <category> [source]
label: message
===================================================

