Created from template: |append [ot_log-ALW-%y-%m-%d_%H_%M_%s.log] 
Number of records: unlimited
Lifetime: unlimited
Log format:
date time severity {session id} <category> [source]
label: message
===================================================

2022-Sep-27 10:53:30.446 ALW {N/A} <N/A> [OptimComponents Core]
========== Log start ==========

