Created from template: |append [ot_log-%y-%m-%d_%H_%M_%s.log] 
Number of records: 100000
Lifetime: unlimited
Log format:
date time severity {session id} <category> [source]
label: message
===================================================

2022-Oct-21 08:24:59.988 ALW {N/A} <N/A> [OptimComponents Core]
========== Log start ==========

2022-Oct-21 08:24:59.990 INFO {N/A} <N/A> [OptimComponents Core]
Created session with ID 'vxmlDialog_0'.

2022-Oct-21 08:25:00.476 INFO {vxmlDialog_0} <Interpretation tracking> [VoiceXML interpreter]
Preparing document 'file:/C:/Users/remil/Documents/UPSSITECH/S9/Dialogue homme machine/AGENDA_V1/gestion_agenda_v1.vxml'.

2022-Oct-21 08:25:00.507 INFO {vxmlDialog_0} <Interpretation tracking> [VoiceXML interpreter]
Preparing of document 'file:/C:/Users/remil/Documents/UPSSITECH/S9/Dialogue homme machine/AGENDA_V1/gestion_agenda_v1.vxml' completed.
  result = success

2022-Oct-21 08:25:00.507 INFO {vxmlDialog_0} <Interpretation tracking> [VoiceXML interpreter]
Interpreting document 'file:/C:/Users/remil/Documents/UPSSITECH/S9/Dialogue homme machine/AGENDA_V1/gestion_agenda_v1.vxml'

2022-Oct-21 08:25:00.522 INFO {vxmlDialog_0} <Interpretation tracking> [VoiceXML interpreter]
Interpreting <form> with id 'agenda'; line 32; column 1.

2022-Oct-21 08:25:00.523 INFO {vxmlDialog_0} <Interpretation tracking> [VoiceXML interpreter]
Interpreting <block>; line 49; column 1.

2022-Oct-21 08:25:00.533 INFO {vxmlDialog_0} <Interpretation tracking> [VoiceXML interpreter]
Interpreting <field> with name 'num_abonne'; line 57; column 1.

2022-Oct-21 08:25:00.582 INFO {vxmlDialog_0} <Interpretation tracking> [VoiceXML interpreter]
Waiting for user's input.

2022-Oct-21 08:25:02.169 INFO {vxmlDialog_0} <Interpretation tracking> [VoiceXML interpreter]
User's input collection completed.

2022-Oct-21 08:25:02.169 INFO {vxmlDialog_0} <Interpretation tracking> [VoiceXML interpreter]
The following input was collected:
  utterance = un
  confidence = 1
  mode = voice

2022-Oct-21 08:25:02.169 INFO {vxmlDialog_0} <Interpretation tracking> [VoiceXML interpreter]
Interpreting <filled>; line 70; column 3.

2022-Oct-21 08:25:02.192 INFO {vxmlDialog_0} <Interpretation tracking> [VoiceXML interpreter]
Interpreting <field> with name 'confirm_num'; line 88; column 3.

2022-Oct-21 08:25:02.224 INFO {vxmlDialog_0} <Interpretation tracking> [VoiceXML interpreter]
Waiting for user's input.

2022-Oct-21 08:25:02.948 INFO {vxmlDialog_0} <Interpretation tracking> [VoiceXML interpreter]
User's input collection completed.

2022-Oct-21 08:25:02.949 INFO {vxmlDialog_0} <Interpretation tracking> [VoiceXML interpreter]
The following input was collected:
  utterance = oui
  confidence = 1
  mode = voice

2022-Oct-21 08:25:02.949 INFO {vxmlDialog_0} <Interpretation tracking> [VoiceXML interpreter]
Interpreting <filled>; line 103; column 10.

2022-Oct-21 08:25:02.964 INFO {vxmlDialog_0} <Interpretation tracking> [VoiceXML interpreter]
Interpreting <block>; line 119; column 1.

2022-Oct-21 08:25:02.977 INFO {vxmlDialog_0} <Interpretation tracking> [VoiceXML interpreter]
Interpreting <field> with name 'date'; line 126; column 1.

2022-Oct-21 08:25:03.040 INFO {vxmlDialog_0} <Interpretation tracking> [VoiceXML interpreter]
Waiting for user's input.

2022-Oct-21 08:25:04.281 INFO {vxmlDialog_0} <Interpretation tracking> [VoiceXML interpreter]
User's input collection completed.

2022-Oct-21 08:25:04.290 INFO {vxmlDialog_0} <Interpretation tracking> [VoiceXML interpreter]
The following input was collected:
  utterance = un mai
  confidence = 1
  mode = voice

2022-Oct-21 08:25:04.293 INFO {vxmlDialog_0} <Interpretation tracking> [VoiceXML interpreter]
Interpreting <filled>; line 139; column 3.

2022-Oct-21 08:25:04.317 INFO {vxmlDialog_0} <Interpretation tracking> [VoiceXML interpreter]
Interpreting <field> with name 'confirm_date'; line 150; column 3.

2022-Oct-21 08:25:04.325 INFO {vxmlDialog_0} <Interpretation tracking> [VoiceXML interpreter]
Waiting for user's input.

2022-Oct-21 08:25:06.384 INFO {vxmlDialog_0} <Interpretation tracking> [VoiceXML interpreter]
User's input collection completed.

2022-Oct-21 08:25:06.389 INFO {vxmlDialog_0} <Interpretation tracking> [VoiceXML interpreter]
The following input was collected:
  utterance = oui
  confidence = 1
  mode = voice

2022-Oct-21 08:25:06.390 INFO {vxmlDialog_0} <Interpretation tracking> [VoiceXML interpreter]
Interpreting <filled>; line 165; column 10.

2022-Oct-21 08:25:06.400 INFO {vxmlDialog_0} <Interpretation tracking> [VoiceXML interpreter]
Interpreting <field> with name 'heure'; line 182; column 1.

2022-Oct-21 08:25:06.500 INFO {vxmlDialog_0} <Interpretation tracking> [VoiceXML interpreter]
Waiting for user's input.

2022-Oct-21 08:25:10.488 INFO {vxmlDialog_0} <Interpretation tracking> [VoiceXML interpreter]
User's input collection completed.

2022-Oct-21 08:25:10.505 INFO {vxmlDialog_0} <Interpretation tracking> [VoiceXML interpreter]
The following input was collected:
  utterance = une heure
  confidence = 1
  mode = voice

2022-Oct-21 08:25:10.505 INFO {vxmlDialog_0} <Interpretation tracking> [VoiceXML interpreter]
Interpreting <filled>; line 195; column 3.

2022-Oct-21 08:25:10.522 INFO {vxmlDialog_0} <Interpretation tracking> [VoiceXML interpreter]
Interpreting <field> with name 'heure'; line 182; column 1.

2022-Oct-21 08:25:10.535 INFO {vxmlDialog_0} <Interpretation tracking> [VoiceXML interpreter]
Waiting for user's input.

2022-Oct-21 08:25:15.687 INFO {vxmlDialog_0} <Interpretation tracking> [VoiceXML interpreter]
User's input collection completed.

2022-Oct-21 08:25:15.690 INFO {vxmlDialog_0} <Interpretation tracking> [VoiceXML interpreter]
The following input was collected:
  utterance = huit heure
  confidence = 1
  mode = voice

2022-Oct-21 08:25:15.690 INFO {vxmlDialog_0} <Interpretation tracking> [VoiceXML interpreter]
Interpreting <filled>; line 195; column 3.

2022-Oct-21 08:25:15.720 INFO {vxmlDialog_0} <Interpretation tracking> [VoiceXML interpreter]
Interpreting <field> with name 'confirm_heure'; line 223; column 3.

2022-Oct-21 08:25:15.729 INFO {vxmlDialog_0} <Interpretation tracking> [VoiceXML interpreter]
Waiting for user's input.

2022-Oct-21 08:25:17.136 INFO {vxmlDialog_0} <Interpretation tracking> [VoiceXML interpreter]
User's input collection completed.

2022-Oct-21 08:25:17.139 INFO {vxmlDialog_0} <Interpretation tracking> [VoiceXML interpreter]
The following input was collected:
  utterance = oui
  confidence = 1
  mode = voice

2022-Oct-21 08:25:17.139 INFO {vxmlDialog_0} <Interpretation tracking> [VoiceXML interpreter]
Interpreting <filled>; line 238; column 10.

2022-Oct-21 08:25:17.151 INFO {vxmlDialog_0} <Interpretation tracking> [VoiceXML interpreter]
Interpreting <field> with name 'duree'; line 256; column 1.

2022-Oct-21 08:25:17.173 INFO {vxmlDialog_0} <Interpretation tracking> [VoiceXML interpreter]
Waiting for user's input.

2022-Oct-21 08:25:28.518 INFO {vxmlDialog_0} <Interpretation tracking> [VoiceXML interpreter]
An event 'noinput' was added to the event queue

2022-Oct-21 08:25:28.518 INFO {vxmlDialog_0} <Interpretation tracking> [VoiceXML interpreter]
User's input collection completed.

2022-Oct-21 08:25:28.518 INFO {vxmlDialog_0} <Interpretation tracking> [VoiceXML interpreter]
Processing event 'noinput'.
  Event origin = document 'file:/C:/Users/remil/Documents/UPSSITECH/S9/Dialogue homme machine/AGENDA_V1/gestion_agenda_v1.vxml'; line 256
  Handler location = document 'file:/C:/Users/remil/Documents/UPSSITECH/S9/Dialogue homme machine/AGENDA_V1/gestion_agenda_v1.vxml'; line 265, column 10

2022-Oct-21 08:25:28.531 INFO {vxmlDialog_0} <Interpretation tracking> [VoiceXML interpreter]
Interpreting <field> with name 'duree'; line 256; column 1.

2022-Oct-21 08:25:28.531 INFO {vxmlDialog_0} <Interpretation tracking> [VoiceXML interpreter]
Waiting for user's input.

2022-Oct-21 08:25:31.880 INFO {vxmlDialog_0} <Interpretation tracking> [VoiceXML interpreter]
User's input collection completed.

2022-Oct-21 08:25:31.884 INFO {vxmlDialog_0} <Interpretation tracking> [VoiceXML interpreter]
The following input was collected:
  utterance = une heure
  confidence = 1
  mode = voice

2022-Oct-21 08:25:31.884 INFO {vxmlDialog_0} <Interpretation tracking> [VoiceXML interpreter]
Interpreting <filled>; line 269; column 3.

2022-Oct-21 08:25:31.919 INFO {vxmlDialog_0} <Interpretation tracking> [VoiceXML interpreter]
Interpreting <field> with name 'confirm_duree'; line 297; column 3.

2022-Oct-21 08:25:31.923 INFO {vxmlDialog_0} <Interpretation tracking> [VoiceXML interpreter]
Waiting for user's input.

2022-Oct-21 08:25:33.209 INFO {vxmlDialog_0} <Interpretation tracking> [VoiceXML interpreter]
User's input collection completed.

2022-Oct-21 08:25:33.213 INFO {vxmlDialog_0} <Interpretation tracking> [VoiceXML interpreter]
The following input was collected:
  utterance = oui
  confidence = 1
  mode = voice

2022-Oct-21 08:25:33.216 INFO {vxmlDialog_0} <Interpretation tracking> [VoiceXML interpreter]
Interpreting <filled>; line 312; column 10.

2022-Oct-21 08:25:33.232 INFO {vxmlDialog_0} <Interpretation tracking> [VoiceXML interpreter]
Interpretation finished.
  value returned by <exit> = undefined
  value returned by <disconnect> = 
undefined

2022-Oct-21 08:25:33.353 INFO {N/A} <N/A> [OptimComponents Core]
Deleted session with ID 'vxmlDialog_0'.

