Created from template: |append [ot_log-%y-%m-%d_%H_%M_%s.log] 
Number of records: 100000
Lifetime: unlimited
Log format:
date time severity {session id} <category> [source]
label: message
===================================================

2022-Oct-19 16:27:04.670 ALW {N/A} <N/A> [OptimComponents Core]
========== Log start ==========

2022-Oct-19 16:27:04.670 INFO {N/A} <N/A> [OptimComponents Core]
Created session with ID 'vxmlDialog_0'.

2022-Oct-19 16:27:05.016 INFO {vxmlDialog_0} <Interpretation tracking> [VoiceXML interpreter]
Preparing document 'file:/C:/Users/remil/Documents/UPSSITECH/S9/Dialogue homme machine/AGENDA_V1/gestion_agenda_v1.vxml'.

2022-Oct-19 16:27:05.035 INFO {vxmlDialog_0} <Interpretation tracking> [VoiceXML interpreter]
Preparing of document 'file:/C:/Users/remil/Documents/UPSSITECH/S9/Dialogue homme machine/AGENDA_V1/gestion_agenda_v1.vxml' completed.
  result = success

2022-Oct-19 16:27:05.035 INFO {vxmlDialog_0} <Interpretation tracking> [VoiceXML interpreter]
Interpreting document 'file:/C:/Users/remil/Documents/UPSSITECH/S9/Dialogue homme machine/AGENDA_V1/gestion_agenda_v1.vxml'

2022-Oct-19 16:27:05.048 INFO {vxmlDialog_0} <Interpretation tracking> [VoiceXML interpreter]
Interpreting <form> with id 'agenda'; line 32; column 1.

2022-Oct-19 16:27:05.049 INFO {vxmlDialog_0} <Interpretation tracking> [VoiceXML interpreter]
Interpreting <block>; line 49; column 1.

2022-Oct-19 16:27:05.056 INFO {vxmlDialog_0} <Interpretation tracking> [VoiceXML interpreter]
Interpreting <field> with name 'num_abonne'; line 57; column 1.

2022-Oct-19 16:27:05.096 INFO {vxmlDialog_0} <Interpretation tracking> [VoiceXML interpreter]
Waiting for user's input.

2022-Oct-19 16:27:05.730 INFO {vxmlDialog_0} <Interpretation tracking> [VoiceXML interpreter]
User's input collection completed.

2022-Oct-19 16:27:05.733 INFO {vxmlDialog_0} <Interpretation tracking> [VoiceXML interpreter]
The following input was collected:
  utterance = un
  confidence = 1
  mode = voice

2022-Oct-19 16:27:05.734 INFO {vxmlDialog_0} <Interpretation tracking> [VoiceXML interpreter]
Interpreting <filled>; line 70; column 3.

2022-Oct-19 16:27:05.741 INFO {vxmlDialog_0} <Interpretation tracking> [VoiceXML interpreter]
Interpreting <field> with name 'confirm_num'; line 88; column 3.

2022-Oct-19 16:27:05.755 INFO {vxmlDialog_0} <Interpretation tracking> [VoiceXML interpreter]
Waiting for user's input.

2022-Oct-19 16:27:06.599 INFO {vxmlDialog_0} <Interpretation tracking> [VoiceXML interpreter]
User's input collection completed.

2022-Oct-19 16:27:06.602 INFO {vxmlDialog_0} <Interpretation tracking> [VoiceXML interpreter]
The following input was collected:
  utterance = oui
  confidence = 1
  mode = voice

2022-Oct-19 16:27:06.602 INFO {vxmlDialog_0} <Interpretation tracking> [VoiceXML interpreter]
Interpreting <filled>; line 103; column 10.

2022-Oct-19 16:27:06.608 INFO {vxmlDialog_0} <Interpretation tracking> [VoiceXML interpreter]
Interpreting <field> with name 'date'; line 120; column 1.

2022-Oct-19 16:27:06.657 INFO {vxmlDialog_0} <Interpretation tracking> [VoiceXML interpreter]
Waiting for user's input.

2022-Oct-19 16:27:08.011 INFO {vxmlDialog_0} <Interpretation tracking> [VoiceXML interpreter]
User's input collection completed.

2022-Oct-19 16:27:08.015 INFO {vxmlDialog_0} <Interpretation tracking> [VoiceXML interpreter]
The following input was collected:
  utterance = un mai
  confidence = 1
  mode = voice

2022-Oct-19 16:27:08.016 INFO {vxmlDialog_0} <Interpretation tracking> [VoiceXML interpreter]
Interpreting <filled>; line 133; column 3.

2022-Oct-19 16:27:08.022 INFO {vxmlDialog_0} <Interpretation tracking> [VoiceXML interpreter]
Interpreting <field> with name 'confirm_date'; line 144; column 3.

2022-Oct-19 16:27:08.024 INFO {vxmlDialog_0} <Interpretation tracking> [VoiceXML interpreter]
Waiting for user's input.

2022-Oct-19 16:27:10.506 INFO {vxmlDialog_0} <Interpretation tracking> [VoiceXML interpreter]
User's input collection completed.

2022-Oct-19 16:27:10.509 INFO {vxmlDialog_0} <Interpretation tracking> [VoiceXML interpreter]
The following input was collected:
  utterance = oui
  confidence = 1
  mode = voice

2022-Oct-19 16:27:10.510 INFO {vxmlDialog_0} <Interpretation tracking> [VoiceXML interpreter]
Interpreting <filled>; line 159; column 10.

2022-Oct-19 16:27:10.513 INFO {vxmlDialog_0} <Interpretation tracking> [VoiceXML interpreter]
Interpreting <field> with name 'heure'; line 176; column 1.

2022-Oct-19 16:27:10.562 INFO {vxmlDialog_0} <Interpretation tracking> [VoiceXML interpreter]
Waiting for user's input.

2022-Oct-19 16:27:14.748 INFO {vxmlDialog_0} <Interpretation tracking> [VoiceXML interpreter]
User's input collection completed.

2022-Oct-19 16:27:14.760 INFO {vxmlDialog_0} <Interpretation tracking> [VoiceXML interpreter]
The following input was collected:
  utterance = sept heure trente
  confidence = 1
  mode = voice

2022-Oct-19 16:27:14.761 INFO {vxmlDialog_0} <Interpretation tracking> [VoiceXML interpreter]
Interpreting <filled>; line 189; column 3.

2022-Oct-19 16:27:14.775 INFO {vxmlDialog_0} <Interpretation tracking> [VoiceXML interpreter]
Interpreting <field> with name 'confirm_heure'; line 217; column 3.

2022-Oct-19 16:27:14.777 INFO {vxmlDialog_0} <Interpretation tracking> [VoiceXML interpreter]
Waiting for user's input.

2022-Oct-19 16:27:16.261 INFO {vxmlDialog_0} <Interpretation tracking> [VoiceXML interpreter]
User's input collection completed.

2022-Oct-19 16:27:16.263 INFO {vxmlDialog_0} <Interpretation tracking> [VoiceXML interpreter]
The following input was collected:
  utterance = non
  confidence = 1
  mode = voice

2022-Oct-19 16:27:16.264 INFO {vxmlDialog_0} <Interpretation tracking> [VoiceXML interpreter]
Interpreting <filled>; line 232; column 10.

2022-Oct-19 16:27:16.268 INFO {vxmlDialog_0} <Interpretation tracking> [VoiceXML interpreter]
Interpreting <field> with name 'heure'; line 176; column 1.

2022-Oct-19 16:27:16.270 INFO {vxmlDialog_0} <Interpretation tracking> [VoiceXML interpreter]
Waiting for user's input.

2022-Oct-19 16:27:35.368 INFO {vxmlDialog_0} <Interpretation tracking> [VoiceXML interpreter]
User's input collection completed.

2022-Oct-19 16:27:35.381 INFO {vxmlDialog_0} <Interpretation tracking> [VoiceXML interpreter]
The following input was collected:
  utterance = dix neuf heures trente
  confidence = 1
  mode = voice

2022-Oct-19 16:27:35.383 INFO {vxmlDialog_0} <Interpretation tracking> [VoiceXML interpreter]
Interpreting <filled>; line 189; column 3.

2022-Oct-19 16:27:35.398 INFO {vxmlDialog_0} <Interpretation tracking> [VoiceXML interpreter]
Interpreting <field> with name 'confirm_heure'; line 217; column 3.

2022-Oct-19 16:27:35.402 INFO {vxmlDialog_0} <Interpretation tracking> [VoiceXML interpreter]
Waiting for user's input.

2022-Oct-19 16:27:38.191 INFO {vxmlDialog_0} <Interpretation tracking> [VoiceXML interpreter]
User's input collection completed.

2022-Oct-19 16:27:38.193 INFO {vxmlDialog_0} <Interpretation tracking> [VoiceXML interpreter]
The following input was collected:
  utterance = non
  confidence = 1
  mode = voice

2022-Oct-19 16:27:38.194 INFO {vxmlDialog_0} <Interpretation tracking> [VoiceXML interpreter]
Interpreting <filled>; line 232; column 10.

2022-Oct-19 16:27:38.198 INFO {vxmlDialog_0} <Interpretation tracking> [VoiceXML interpreter]
Interpreting <field> with name 'heure'; line 176; column 1.

2022-Oct-19 16:27:38.200 INFO {vxmlDialog_0} <Interpretation tracking> [VoiceXML interpreter]
Waiting for user's input.

2022-Oct-19 16:27:46.206 INFO {vxmlDialog_0} <Interpretation tracking> [VoiceXML interpreter]
An event 'noinput' was added to the event queue

2022-Oct-19 16:27:46.206 INFO {vxmlDialog_0} <Interpretation tracking> [VoiceXML interpreter]
User's input collection completed.

2022-Oct-19 16:27:46.207 INFO {vxmlDialog_0} <Interpretation tracking> [VoiceXML interpreter]
Processing event 'noinput'.
  Event origin = document 'file:/C:/Users/remil/Documents/UPSSITECH/S9/Dialogue homme machine/AGENDA_V1/gestion_agenda_v1.vxml'; line 176
  Handler location = document 'file:/C:/Users/remil/Documents/UPSSITECH/S9/Dialogue homme machine/AGENDA_V1/gestion_agenda_v1.vxml'; line 185, column 10

2022-Oct-19 16:27:46.210 INFO {vxmlDialog_0} <Interpretation tracking> [VoiceXML interpreter]
Interpreting <field> with name 'heure'; line 176; column 1.

2022-Oct-19 16:27:46.211 INFO {vxmlDialog_0} <Interpretation tracking> [VoiceXML interpreter]
Waiting for user's input.

2022-Oct-19 16:27:49.273 INFO {vxmlDialog_0} <Interpretation tracking> [VoiceXML interpreter]
User's input collection completed.

2022-Oct-19 16:27:49.276 INFO {vxmlDialog_0} <Interpretation tracking> [VoiceXML interpreter]
The following input was collected:
  utterance = exit
  confidence = 1
  mode = voice

2022-Oct-19 16:27:49.277 INFO {vxmlDialog_0} <Interpretation tracking> [VoiceXML interpreter]
An event 'exit' was added to the event queue

2022-Oct-19 16:27:49.277 INFO {vxmlDialog_0} <Interpretation tracking> [VoiceXML interpreter]
Processing event 'exit'.
  Event origin = document 'file:/C:/Users/remil/Documents/UPSSITECH/S9/Dialogue homme machine/AGENDA_V1/gestion_agenda_v1.vxml'
  Handler location = document 'file:/C:/Users/remil/Documents/UPSSITECH/S9/Dialogue homme machine/AGENDA_V1/gestion_agenda_v1.vxml'; line 25, column 1

2022-Oct-19 16:27:49.285 INFO {vxmlDialog_0} <Interpretation tracking> [VoiceXML interpreter]
Interpretation finished.
  value returned by <exit> = 
{
}
  value returned by <disconnect> = 
undefined

2022-Oct-19 16:27:49.424 INFO {N/A} <N/A> [OptimComponents Core]
Deleted session with ID 'vxmlDialog_0'.

