Created from template: |append [ot_log-%y-%m-%d_%H_%M_%s.log] 
Number of records: 100000
Lifetime: unlimited
Log format:
date time severity {session id} <category> [source]
label: message
===================================================

2022-Sep-30 14:40:23.901 ALW {N/A} <N/A> [OptimComponents Core]
========== Log start ==========

2022-Sep-30 14:40:23.901 INFO {N/A} <N/A> [OptimComponents Core]
Created session with ID 'vxmlDialog_0'.

2022-Sep-30 14:40:24.101 INFO {vxmlDialog_0} <Interpretation tracking> [VoiceXML interpreter]
Preparing document 'file:/C:/Users/remil/Documents/UPSSITECH/S9/Dialogue homme machine/AGENDA_V1/gestion_agenda_v1.vxml'.

2022-Sep-30 14:40:24.117 INFO {vxmlDialog_0} <Interpretation tracking> [VoiceXML interpreter]
Preparing of document 'file:/C:/Users/remil/Documents/UPSSITECH/S9/Dialogue homme machine/AGENDA_V1/gestion_agenda_v1.vxml' completed.
  result = success

2022-Sep-30 14:40:24.118 INFO {vxmlDialog_0} <Interpretation tracking> [VoiceXML interpreter]
Interpreting document 'file:/C:/Users/remil/Documents/UPSSITECH/S9/Dialogue homme machine/AGENDA_V1/gestion_agenda_v1.vxml'

2022-Sep-30 14:40:24.128 INFO {vxmlDialog_0} <Interpretation tracking> [VoiceXML interpreter]
Interpreting <form> with id 'agenda'; line 32; column 1.

2022-Sep-30 14:40:24.128 INFO {vxmlDialog_0} <Interpretation tracking> [VoiceXML interpreter]
Interpreting <block>; line 49; column 1.

2022-Sep-30 14:40:24.138 INFO {vxmlDialog_0} <Interpretation tracking> [VoiceXML interpreter]
Interpreting <field> with name 'num_abonne'; line 57; column 1.

2022-Sep-30 14:40:24.179 INFO {vxmlDialog_0} <Interpretation tracking> [VoiceXML interpreter]
Waiting for user's input.

2022-Sep-30 14:40:27.027 INFO {vxmlDialog_0} <Interpretation tracking> [VoiceXML interpreter]
User has been disconnected.

2022-Sep-30 14:40:27.027 INFO {vxmlDialog_0} <Interpretation tracking> [VoiceXML interpreter]
An event 'connection.disconnect.hangup' was added to the event queue

2022-Sep-30 14:40:27.028 INFO {vxmlDialog_0} <Interpretation tracking> [VoiceXML interpreter]
User's input collection completed.

2022-Sep-30 14:40:27.028 INFO {vxmlDialog_0} <Interpretation tracking> [VoiceXML interpreter]
Processing event 'connection.disconnect.hangup'.
  Event origin = document 'file:/C:/Users/remil/Documents/UPSSITECH/S9/Dialogue homme machine/AGENDA_V1/gestion_agenda_v1.vxml'
  Handler location = platform default handler

2022-Sep-30 14:40:27.031 INFO {vxmlDialog_0} <Interpretation tracking> [VoiceXML interpreter]
Interpretation finished.
  value returned by <exit> = 
{
}
  value returned by <disconnect> = 
undefined

2022-Sep-30 14:40:27.140 INFO {N/A} <N/A> [OptimComponents Core]
Deleted session with ID 'vxmlDialog_0'.

