Aligned transcription: Labels/cinq_alban_2012.lab vs Resultats/init-AppSurApp-TestSurTst/cinq_alban_2012.rec
 LAB: cinq 
 REC: neuf 
Aligned transcription: Labels/cinq_gabrielides_2012.lab vs Resultats/init-AppSurApp-TestSurTst/cinq_gabrielides_2012.rec
 LAB: cinq 
 REC: sept 
Aligned transcription: Labels/neuf_eric_2012.lab vs Resultats/init-AppSurApp-TestSurTst/neuf_eric_2012.rec
 LAB: neuf   
 REC: quatre 
====================== HTK Results Analysis =======================
  Date: Tue Mar  8 11:03:37 2022
  Ref : Labels/
  Rec : Resultats/init-AppSurApp-TestSurTst/cinq_alban_2012.rec
      : Resultats/init-AppSurApp-TestSurTst/cinq_brice_2012.rec
      : Resultats/init-AppSurApp-TestSurTst/cinq_dominique_2012.rec
      : Resultats/init-AppSurApp-TestSurTst/cinq_eric_2012.rec
      : Resultats/init-AppSurApp-TestSurTst/cinq_etienne_2012.rec
------------------------ Overall Results --------------------------
SENT: %Correct=97.50 [H=117, S=3, N=120]
WORD: %Corr=97.50, Acc=97.50 [H=117, D=0, S=3, I=0, N=120]
------------------------ Confusion Matrix -------------------------
       c   d   h   m   n   p   q   s   s   t   u   z 
       i   e   u   o   e   l   u   e   i   r   n   e 
       n   u   i   i   u   u   a   p   x   o       r 
       q   x   t   n   f   s   t   t       i       o 
                   s           r           s          Del [ %c / %e]
cinq   8   0   0   0   1   0   0   1   0   0   0   0    0 [80.0/1.7]
deux   0  10   0   0   0   0   0   0   0   0   0   0    0
huit   0   0  10   0   0   0   0   0   0   0   0   0    0
moin   0   0   0  10   0   0   0   0   0   0   0   0    0
neuf   0   0   0   0   9   0   1   0   0   0   0   0    0 [90.0/0.8]
plus   0   0   0   0   0  10   0   0   0   0   0   0    0
quat   0   0   0   0   0   0  10   0   0   0   0   0    0
sept   0   0   0   0   0   0   0  10   0   0   0   0    0
 six   0   0   0   0   0   0   0   0  10   0   0   0    0
troi   0   0   0   0   0   0   0   0   0  10   0   0    0
  un   0   0   0   0   0   0   0   0   0   0  10   0    0
zero   0   0   0   0   0   0   0   0   0   0   0  10    0
Ins    0   0   0   0   0   0   0   0   0   0   0   0
===================================================================
